
strategic_region={
	id=153
	name="STRATEGICREGION_153"
	provinces={
		1061 1103 1129 1144 1190 1199 1377 1510 1898 1908 1949 1983 2002 2005 2032 2036 2054 2076 2086 2092 2105 3989 4045 4064 4090 4106 4132 4149 4187 4299 4410 4557 4883 4915 4950 4953 4971 4984 5002 5040 5055 5086 5096 5157 7020 7064 7080 7106 7150 7165 7205 7207 7430 7497 7574 7619 7905 7938 7998 8076 8082 8114 8120 9951 9973 9975 10021 10030 10118 10332 10401 10729 10794 10801 10807 10816 10847 10866 10872 11952 11955 11993 11995 12037 12041 12080 12092 12137 12375 12420 12480 12708 12718 12743 12777 12781 12786 12799 12829 12844 12854 12868 12876 12886 
	}
	weather={
		period={
			between={ 0.0 30.0 }
			temperature={ 10.0 24.0 }
			no_phenomenon=0.800
			rain_light=0.100
			rain_heavy=0.500
			snow=0.050
			blizzard=0.000
			arctic_water=0.000
			mud=1.000
			sandstorm=0.000
			min_snow_level=0.000
		}
		period={
			between={ 0.1 27.1 }
			temperature={ 12.0 27.0 }
			no_phenomenon=0.800
			rain_light=0.100
			rain_heavy=0.500
			snow=0.050
			blizzard=0.000
			arctic_water=0.000
			mud=1.000
			sandstorm=0.000
			min_snow_level=0.000
		}
		period={
			between={ 0.2 30.2 }
			temperature={ 18.0 34.0 }
			no_phenomenon=0.850
			rain_light=0.100
			rain_heavy=0.500
			snow=0.000
			blizzard=0.000
			arctic_water=0.000
			mud=1.000
			sandstorm=0.000
			min_snow_level=0.000
		}
		period={
			between={ 0.3 29.3 }
			temperature={ 23.0 38.0 }
			no_phenomenon=0.850
			rain_light=0.100
			rain_heavy=0.500
			snow=0.000
			blizzard=0.000
			arctic_water=0.000
			mud=1.000
			sandstorm=0.000
			min_snow_level=0.000
		}
		period={
			between={ 0.4 30.4 }
			temperature={ 27.0 42.0 }
			no_phenomenon=0.900
			rain_light=0.100
			rain_heavy=0.500
			snow=0.000
			blizzard=0.000
			arctic_water=0.000
			mud=1.000
			sandstorm=0.000
			min_snow_level=0.000
		}
		period={
			between={ 0.5 29.5 }
			temperature={ 27.0 41.0 }
			no_phenomenon=1.000
			rain_light=0.000
			rain_heavy=0.000
			snow=0.000
			blizzard=0.000
			arctic_water=0.000
			mud=1.000
			sandstorm=0.000
			min_snow_level=0.000
		}
		period={
			between={ 0.6 30.6 }
			temperature={ 23.0 37.0 }
			no_phenomenon=1.000
			rain_light=0.000
			rain_heavy=0.000
			snow=0.000
			blizzard=0.000
			arctic_water=0.000
			mud=1.000
			sandstorm=0.000
			min_snow_level=0.000
		}
		period={
			between={ 0.7 30.7 }
			temperature={ 22.0 35.0 }
			no_phenomenon=0.950
			rain_light=0.000
			rain_heavy=0.050
			snow=0.000
			blizzard=0.000
			arctic_water=0.000
			mud=1.000
			sandstorm=0.000
			min_snow_level=0.000
		}
		period={
			between={ 0.8 29.8 }
			temperature={ 22.0 35.0 }
			no_phenomenon=0.920
			rain_light=0.030
			rain_heavy=0.050
			snow=0.000
			blizzard=0.000
			arctic_water=0.000
			mud=1.000
			sandstorm=0.000
			min_snow_level=0.000
		}
		period={
			between={ 0.9 30.9 }
			temperature={ 20.0 35.0 }
			no_phenomenon=0.920
			rain_light=0.030
			rain_heavy=0.050
			snow=0.000
			blizzard=0.000
			arctic_water=0.000
			mud=1.000
			sandstorm=0.000
			min_snow_level=0.000
		}
		period={
			between={ 0.10 29.10 }
			temperature={ 15.0 29.0 }
			no_phenomenon=0.880
			rain_light=0.070
			rain_heavy=0.050
			snow=0.000
			blizzard=0.000
			arctic_water=0.000
			mud=1.000
			sandstorm=0.000
			min_snow_level=0.000
		}
		period={
			between={ 0.11 30.11 }
			temperature={ 11.0 25.0 }
			no_phenomenon=0.800
			rain_light=0.050
			rain_heavy=0.100
			snow=0.050
			blizzard=0.000
			arctic_water=0.000
			mud=1.000
			sandstorm=0.000
			min_snow_level=0.000
		}
	}
}