
state={
	id=735
	name="STATE_735"

	history={
		owner = FRA
		add_core_of = OCC
		add_core_of = FRA
		victory_points = {
			13308 1 
		}
		buildings = {
			infrastructure = 2
		}

	}

	provinces={
		6609 9603 9745 13308
	}
	manpower=499076
	buildings_max_level_factor=1.000
	state_category=town
	local_supplies=0.0
}
