
state={
	id=803
	name="STATE_803"

	history={
		victory_points = {
			11857 1 
		}
		owner = YUG
		buildings = {
			infrastructure = 2

		}
		add_core_of = YUG
		add_core_of = SER
		add_claim_by = BUL

	}

	provinces={
		11857 11868 13251 13252 13260
	}
	manpower=210000
	buildings_max_level_factor=1.000
	state_category=pastoral
	local_supplies=0.0
}
