state={
	id=862
	name="STATE_862"

	history={
		owner = YUG
		victory_points = {
			3631 3
		}
		buildings = {
			infrastructure = 2
		}
		add_core_of = YUG
		add_core_of = SLV
	}
	provinces={
		3631 9596
	}
	manpower=252334
	buildings_max_level_factor=1.000
	state_category=town
	local_supplies=0.0
}
