
state={
	id=87
	name="STATE_87"

	history={
		owner = POL
		buildings = {
			infrastructure = 3
			industrial_complex = 2

		}
		victory_points = {
			9508 10 
		}
		victory_points = {
			9546 1
		}
		add_core_of = POL
		1939.1.1 = {
			buildings = {
				air_base = 3

			}

		}

	}

	provinces={
		493 584 9439 9508 9546 11428 11515 13345
	}
	manpower=2632000
	buildings_max_level_factor=1.000
	state_category=town
	local_supplies=0.0 
}
