state={
	id=884
	name="STATE_884"
	history={
		owner = FRA
		buildings = {
			infrastructure = 2
		}
		add_core_of = OCC
		add_core_of = FRA
	}
	provinces={
		3915 6915 6931
	}
	manpower=155134
	buildings_max_level_factor=1.000
	state_category=rural
	local_supplies=0.0
}
